Release 14.7 - par P.20131013 (nt64)
Copyright (c) 1995-2013 Xilinx, Inc.  All rights reserved.

Mon Aug 27 13:07:56 2018


INFO: The IO information is provided in three file formats as part of the Place and Route (PAR) process.  These formats are:
1. The <design name>_pad.txt file (this file) designed to provide information on IO usage in a human readable ASCII text format viewable through common text editors.
2. The <design namd>_pad.csv file for use with spreadsheet programs such as MS Excel. This file can also be read by PACE to communicate post PAR IO information.
3. The <design name>.pad file designed for parsing by customers.  It uses the "|" as a data field separator.

INPUT FILE:       top_auto_map.ncd
OUTPUT FILE:      top_auto_pad.txt
PART TYPE:        xc3s1500
SPEED GRADE:      -4
PACKAGE:          fg320

Pinout by Pin Number:

+---------------------------------------------------------------------------------------------------------------------------------------------------------------------------------------+
|Pin Number|Signal Name |Pin Usage|Pin Name           |Direction|IO Standard|IO Bank Number|Drive (mA)|Slew Rate|Termination|IOB Delay|Voltage  |Constraint|IO Register|Signal Integrity|
+---------------------------------------------------------------------------------------------------------------------------------------------------------------------------------------+
|A1        |            |         |GND                |         |           |              |          |         |           |         |         |          |           |                |
|A2        |            |DIFFS    |IO_L01N_0/VRP_0    |UNUSED   |           |0             |          |         |           |         |         |          |           |                |
|A3        |            |DIFFM    |IO_L01P_0/VRN_0    |UNUSED   |           |0             |          |         |           |         |         |          |           |                |
|A4        |            |DIFFS    |IO_L15N_0          |UNUSED   |           |0             |          |         |           |         |         |          |           |                |
|A5        |            |DIFFM    |IO_L15P_0          |UNUSED   |           |0             |          |         |           |         |         |          |           |                |
|A6        |            |         |GND                |         |           |              |          |         |           |         |         |          |           |                |
|A7        |            |DIFFS    |IO_L30N_0          |UNUSED   |           |0             |          |         |           |         |         |          |           |                |
|A8        |            |DIFFM    |IO_L30P_0          |UNUSED   |           |0             |          |         |           |         |         |          |           |                |
|A9        |            |DIFFM    |IO_L31P_0/VREF_0   |UNUSED   |           |0             |          |         |           |         |         |          |           |                |
|A10       |            |DIFFS    |IO_L31N_1/VREF_1   |UNUSED   |           |1             |          |         |           |         |         |          |           |                |
|A11       |            |IOB      |IO                 |UNUSED   |           |1             |          |         |           |         |         |          |           |                |
|A12       |            |IOB      |IO/VREF_1          |UNUSED   |           |1             |          |         |           |         |         |          |           |                |
|A13       |            |         |GND                |         |           |              |          |         |           |         |         |          |           |                |
|A14       |            |DIFFS    |IO_L16N_1          |UNUSED   |           |1             |          |         |           |         |         |          |           |                |
|A15       |            |DIFFS    |IO_L10N_1/VREF_1   |UNUSED   |           |1             |          |         |           |         |         |          |           |                |
|A16       |            |DIFFS    |IO_L01N_1/VRP_1    |UNUSED   |           |1             |          |         |           |         |         |          |           |                |
|A17       |            |DIFFM    |IO_L01P_1/VRN_1    |UNUSED   |           |1             |          |         |           |         |         |          |           |                |
|A18       |            |         |GND                |         |           |              |          |         |           |         |         |          |           |                |
|B1        |            |DIFFM    |IO_L16P_7/VREF_7   |UNUSED   |           |7             |          |         |           |         |         |          |           |                |
|B2        |            |         |GND                |         |           |              |          |         |           |         |         |          |           |                |
|B3        |            |IOB      |IO/VREF_0          |UNUSED   |           |0             |          |         |           |         |         |          |           |                |
|B4        |            |DIFFS    |IO_L09N_0          |UNUSED   |           |0             |          |         |           |         |         |          |           |                |
|B5        |            |DIFFS    |IO_L25N_0          |UNUSED   |           |0             |          |         |           |         |         |          |           |                |
|B6        |            |DIFFM    |IO_L25P_0          |UNUSED   |           |0             |          |         |           |         |         |          |           |                |
|B7        |            |         |VCCAUX             |         |           |              |          |         |           |         |2.5      |          |           |                |
|B8        |            |         |VCCO_0             |         |           |0             |          |         |           |         |any******|          |           |                |
|B9        |            |DIFFS    |IO_L31N_0          |UNUSED   |           |0             |          |         |           |         |         |          |           |                |
|B10       |            |DIFFM    |IO_L31P_1          |UNUSED   |           |1             |          |         |           |         |         |          |           |                |
|B11       |            |         |VCCO_1             |         |           |1             |          |         |           |         |any******|          |           |                |
|B12       |            |         |VCCAUX             |         |           |              |          |         |           |         |2.5      |          |           |                |
|B13       |            |IOB      |IO                 |UNUSED   |           |1             |          |         |           |         |         |          |           |                |
|B14       |            |DIFFM    |IO_L16P_1          |UNUSED   |           |1             |          |         |           |         |         |          |           |                |
|B15       |            |DIFFM    |IO_L10P_1          |UNUSED   |           |1             |          |         |           |         |         |          |           |                |
|B16       |            |         |TMS                |         |           |              |          |         |           |         |         |          |           |                |
|B17       |            |         |GND                |         |           |              |          |         |           |         |         |          |           |                |
|B18       |            |DIFFS    |IO_L16N_2          |UNUSED   |           |2             |          |         |           |         |         |          |           |                |
|C1        |            |DIFFS    |IO_L16N_7          |UNUSED   |           |7             |          |         |           |         |         |          |           |                |
|C2        |            |DIFFM    |IO_L01P_7/VRN_7    |UNUSED   |           |7             |          |         |           |         |         |          |           |                |
|C3        |            |DIFFS    |IO_L01N_7/VRP_7    |UNUSED   |           |7             |          |         |           |         |         |          |           |                |
|C4        |            |DIFFM    |IO_L09P_0          |UNUSED   |           |0             |          |         |           |         |         |          |           |                |
|C5        |            |DIFFS    |IO_L10N_0          |UNUSED   |           |0             |          |         |           |         |         |          |           |                |
|C6        |            |         |VCCO_0             |         |           |0             |          |         |           |         |any******|          |           |                |
|C7        |            |DIFFS    |IO_L27N_0          |UNUSED   |           |0             |          |         |           |         |         |          |           |                |
|C8        |            |DIFFS    |IO_L28N_0          |UNUSED   |           |0             |          |         |           |         |         |          |           |                |
|C9        |            |         |GND                |         |           |              |          |         |           |         |         |          |           |                |
|C10       |            |         |GND                |         |           |              |          |         |           |         |         |          |           |                |
|C11       |            |DIFFS    |IO_L30N_1          |UNUSED   |           |1             |          |         |           |         |         |          |           |                |
|C12       |            |DIFFS    |IO_L28N_1          |UNUSED   |           |1             |          |         |           |         |         |          |           |                |
|C13       |            |         |VCCO_1             |         |           |1             |          |         |           |         |any******|          |           |                |
|C14       |            |DIFFS    |IO_L15N_1          |UNUSED   |           |1             |          |         |           |         |         |          |           |                |
|C15       |            |DIFFM    |IO_L15P_1          |UNUSED   |           |1             |          |         |           |         |         |          |           |                |
|C16       |            |DIFFS    |IO_L01N_2/VRP_2    |UNUSED   |           |2             |          |         |           |         |         |          |           |                |
|C17       |            |DIFFM    |IO_L01P_2/VRN_2    |UNUSED   |           |2             |          |         |           |         |         |          |           |                |
|C18       |            |DIFFM    |IO_L16P_2          |UNUSED   |           |2             |          |         |           |         |         |          |           |                |
|D1        |            |DIFFS    |IO_L17N_7          |UNUSED   |           |7             |          |         |           |         |         |          |           |                |
|D2        |            |DIFFM    |IO_L17P_7          |UNUSED   |           |7             |          |         |           |         |         |          |           |                |
|D3        |            |DIFFM    |IO_L19P_7          |UNUSED   |           |7             |          |         |           |         |         |          |           |                |
|D4        |            |         |TDI                |         |           |              |          |         |           |         |         |          |           |                |
|D5        |            |DIFFM    |IO_L10P_0          |UNUSED   |           |0             |          |         |           |         |         |          |           |                |
|D6        |            |IOB      |IO/VREF_0          |UNUSED   |           |0             |          |         |           |         |         |          |           |                |
|D7        |            |DIFFM    |IO_L27P_0          |UNUSED   |           |0             |          |         |           |         |         |          |           |                |
|D8        |            |DIFFM    |IO_L28P_0          |UNUSED   |           |0             |          |         |           |         |         |          |           |                |
|D9        |            |IOB      |IO                 |UNUSED   |           |0             |          |         |           |         |         |          |           |                |
|D10       |            |IOB      |IO                 |UNUSED   |           |1             |          |         |           |         |         |          |           |                |
|D11       |            |DIFFM    |IO_L30P_1          |UNUSED   |           |1             |          |         |           |         |         |          |           |                |
|D12       |            |DIFFM    |IO_L28P_1          |UNUSED   |           |1             |          |         |           |         |         |          |           |                |
|D13       |            |DIFFM    |IO_L24P_1          |UNUSED   |           |1             |          |         |           |         |         |          |           |                |
|D14       |            |DIFFS    |IO_L24N_1          |UNUSED   |           |1             |          |         |           |         |         |          |           |                |
|D15       |            |         |TDO                |         |           |              |          |         |           |         |         |          |           |                |
|D16       |            |DIFFS    |IO_L19N_2          |UNUSED   |           |2             |          |         |           |         |         |          |           |                |
|D17       |            |DIFFS    |IO_L17N_2          |UNUSED   |           |2             |          |         |           |         |         |          |           |                |
|D18       |            |DIFFM    |IO_L17P_2/VREF_2   |UNUSED   |           |2             |          |         |           |         |         |          |           |                |
|E1        |            |DIFFM    |IO_L20P_7          |UNUSED   |           |7             |          |         |           |         |         |          |           |                |
|E2        |            |DIFFS    |IO_L20N_7          |UNUSED   |           |7             |          |         |           |         |         |          |           |                |
|E3        |            |DIFFS    |IO_L19N_7/VREF_7   |UNUSED   |           |7             |          |         |           |         |         |          |           |                |
|E4        |            |DIFFS    |IO_L21N_7          |UNUSED   |           |7             |          |         |           |         |         |          |           |                |
|E5        |            |         |PROG_B             |         |           |              |          |         |           |         |         |          |           |                |
|E6        |            |         |HSWAP_EN           |         |           |              |          |         |           |         |         |          |           |                |
|E7        |            |IOB      |IO                 |UNUSED   |           |0             |          |         |           |         |         |          |           |                |
|E8        |            |DIFFS    |IO_L29N_0          |UNUSED   |           |0             |          |         |           |         |         |          |           |                |
|E9        |            |DIFFS    |IO_L32N_0/GCLK7    |UNUSED   |           |0             |          |         |           |         |         |          |           |                |
|E10       |            |DIFFS    |IO_L32N_1/GCLK5    |UNUSED   |           |1             |          |         |           |         |         |          |           |                |
|E11       |            |DIFFM    |IO_L29P_1          |UNUSED   |           |1             |          |         |           |         |         |          |           |                |
|E12       |            |DIFFM    |IO_L27P_1          |UNUSED   |           |1             |          |         |           |         |         |          |           |                |
|E13       |            |DIFFS    |IO_L27N_1          |UNUSED   |           |1             |          |         |           |         |         |          |           |                |
|E14       |            |         |TCK                |         |           |              |          |         |           |         |         |          |           |                |
|E15       |            |DIFFM    |IO_L21P_2          |UNUSED   |           |2             |          |         |           |         |         |          |           |                |
|E16       |            |DIFFM    |IO_L19P_2          |UNUSED   |           |2             |          |         |           |         |         |          |           |                |
|E17       |            |DIFFS    |IO_L20N_2          |UNUSED   |           |2             |          |         |           |         |         |          |           |                |
|E18       |            |DIFFM    |IO_L20P_2          |UNUSED   |           |2             |          |         |           |         |         |          |           |                |
|F1        |            |         |GND                |         |           |              |          |         |           |         |         |          |           |                |
|F2        |            |DIFFM    |IO_L23P_7          |UNUSED   |           |7             |          |         |           |         |         |          |           |                |
|F3        |            |         |VCCO_7             |         |           |7             |          |         |           |         |any******|          |           |                |
|F4        |            |DIFFM    |IO_L21P_7          |UNUSED   |           |7             |          |         |           |         |         |          |           |                |
|F5        |            |DIFFM    |IO_L22P_7          |UNUSED   |           |7             |          |         |           |         |         |          |           |                |
|F6        |            |         |VCCINT             |         |           |              |          |         |           |         |1.2      |          |           |                |
|F7        |            |         |VCCINT             |         |           |              |          |         |           |         |1.2      |          |           |                |
|F8        |            |DIFFM    |IO_L29P_0          |UNUSED   |           |0             |          |         |           |         |         |          |           |                |
|F9        |            |DIFFM    |IO_L32P_0/GCLK6    |UNUSED   |           |0             |          |         |           |         |         |          |           |                |
|F10       |            |DIFFM    |IO_L32P_1/GCLK4    |UNUSED   |           |1             |          |         |           |         |         |          |           |                |
|F11       |            |DIFFS    |IO_L29N_1          |UNUSED   |           |1             |          |         |           |         |         |          |           |                |
|F12       |            |         |VCCINT             |         |           |              |          |         |           |         |1.2      |          |           |                |
|F13       |            |         |VCCINT             |         |           |              |          |         |           |         |1.2      |          |           |                |
|F14       |            |DIFFS    |IO_L22N_2          |UNUSED   |           |2             |          |         |           |         |         |          |           |                |
|F15       |            |DIFFS    |IO_L21N_2          |UNUSED   |           |2             |          |         |           |         |         |          |           |                |
|F16       |            |         |VCCO_2             |         |           |2             |          |         |           |         |any******|          |           |                |
|F17       |            |DIFFM    |IO_L23P_2          |UNUSED   |           |2             |          |         |           |         |         |          |           |                |
|F18       |            |         |GND                |         |           |              |          |         |           |         |         |          |           |                |
|G1        |            |DIFFS    |IO_L23N_7          |UNUSED   |           |7             |          |         |           |         |         |          |           |                |
|G2        |            |         |VCCAUX             |         |           |              |          |         |           |         |2.5      |          |           |                |
|G3        |            |DIFFM    |IO_L24P_7          |UNUSED   |           |7             |          |         |           |         |         |          |           |                |
|G4        |            |DIFFS    |IO_L24N_7          |UNUSED   |           |7             |          |         |           |         |         |          |           |                |
|G5        |            |DIFFS    |IO_L22N_7          |UNUSED   |           |7             |          |         |           |         |         |          |           |                |
|G6        |            |         |VCCINT             |         |           |              |          |         |           |         |1.2      |          |           |                |
|G7        |            |         |GND                |         |           |              |          |         |           |         |         |          |           |                |
|G8        |            |         |VCCO_0             |         |           |0             |          |         |           |         |any******|          |           |                |
|G9        |            |         |VCCO_0             |         |           |0             |          |         |           |         |any******|          |           |                |
|G10       |            |         |VCCO_1             |         |           |1             |          |         |           |         |any******|          |           |                |
|G11       |            |         |VCCO_1             |         |           |1             |          |         |           |         |any******|          |           |                |
|G12       |            |         |GND                |         |           |              |          |         |           |         |         |          |           |                |
|G13       |            |         |VCCINT             |         |           |              |          |         |           |         |1.2      |          |           |                |
|G14       |            |DIFFM    |IO_L22P_2          |UNUSED   |           |2             |          |         |           |         |         |          |           |                |
|G15       |            |DIFFS    |IO_L24N_2          |UNUSED   |           |2             |          |         |           |         |         |          |           |                |
|G16       |            |DIFFM    |IO_L24P_2          |UNUSED   |           |2             |          |         |           |         |         |          |           |                |
|G17       |            |         |VCCAUX             |         |           |              |          |         |           |         |2.5      |          |           |                |
|G18       |            |DIFFS    |IO_L23N_2/VREF_2   |UNUSED   |           |2             |          |         |           |         |         |          |           |                |
|H1        |            |DIFFS    |IO_L35N_7          |UNUSED   |           |7             |          |         |           |         |         |          |           |                |
|H2        |            |DIFFM    |IO_L35P_7          |UNUSED   |           |7             |          |         |           |         |         |          |           |                |
|H3        |            |DIFFM    |IO_L34P_7          |UNUSED   |           |7             |          |         |           |         |         |          |           |                |
|H4        |            |DIFFS    |IO_L34N_7          |UNUSED   |           |7             |          |         |           |         |         |          |           |                |
|H5        |            |DIFFS    |IO_L27N_7          |UNUSED   |           |7             |          |         |           |         |         |          |           |                |
|H6        |            |DIFFM    |IO_L27P_7/VREF_7   |UNUSED   |           |7             |          |         |           |         |         |          |           |                |
|H7        |            |         |VCCO_7             |         |           |7             |          |         |           |         |any******|          |           |                |
|H8        |            |         |GND                |         |           |              |          |         |           |         |         |          |           |                |
|H9        |            |         |GND                |         |           |              |          |         |           |         |         |          |           |                |
|H10       |            |         |GND                |         |           |              |          |         |           |         |         |          |           |                |
|H11       |            |         |GND                |         |           |              |          |         |           |         |         |          |           |                |
|H12       |            |         |VCCO_2             |         |           |2             |          |         |           |         |any******|          |           |                |
|H13       |            |DIFFS    |IO_L27N_2          |UNUSED   |           |2             |          |         |           |         |         |          |           |                |
|H14       |            |DIFFM    |IO_L27P_2          |UNUSED   |           |2             |          |         |           |         |         |          |           |                |
|H15       |            |DIFFM    |IO_L34P_2          |UNUSED   |           |2             |          |         |           |         |         |          |           |                |
|H16       |            |DIFFS    |IO_L34N_2/VREF_2   |UNUSED   |           |2             |          |         |           |         |         |          |           |                |
|H17       |            |DIFFS    |IO_L35N_2          |UNUSED   |           |2             |          |         |           |         |         |          |           |                |
|H18       |            |DIFFM    |IO_L35P_2          |UNUSED   |           |2             |          |         |           |         |         |          |           |                |
|J1        |            |DIFFS    |IO_L39N_7          |UNUSED   |           |7             |          |         |           |         |         |          |           |                |
|J2        |            |DIFFM    |IO_L39P_7          |UNUSED   |           |7             |          |         |           |         |         |          |           |                |
|J3        |            |         |GND                |         |           |              |          |         |           |         |         |          |           |                |
|J4        |            |DIFFM    |IO_L40P_7          |UNUSED   |           |7             |          |         |           |         |         |          |           |                |
|J5        |            |DIFFS    |IO_L40N_7/VREF_7   |UNUSED   |           |7             |          |         |           |         |         |          |           |                |
|J6        |            |DIFFS    |IO                 |UNUSED   |           |7             |          |         |           |         |         |          |           |                |
|J7        |            |         |VCCO_7             |         |           |7             |          |         |           |         |any******|          |           |                |
|J8        |            |         |GND                |         |           |              |          |         |           |         |         |          |           |                |
|J11       |            |         |GND                |         |           |              |          |         |           |         |         |          |           |                |
|J12       |            |         |VCCO_2             |         |           |2             |          |         |           |         |any******|          |           |                |
|J13       |            |DIFFM    |IO                 |UNUSED   |           |2             |          |         |           |         |         |          |           |                |
|J14       |            |DIFFM    |IO_L40P_2/VREF_2   |UNUSED   |           |2             |          |         |           |         |         |          |           |                |
|J15       |            |DIFFS    |IO_L40N_2          |UNUSED   |           |2             |          |         |           |         |         |          |           |                |
|J16       |            |         |GND                |         |           |              |          |         |           |         |         |          |           |                |
|J17       |            |DIFFM    |IO_L39P_2          |UNUSED   |           |2             |          |         |           |         |         |          |           |                |
|J18       |            |DIFFS    |IO_L39N_2          |UNUSED   |           |2             |          |         |           |         |         |          |           |                |
|K1        |            |DIFFS    |IO_L40N_6          |UNUSED   |           |6             |          |         |           |         |         |          |           |                |
|K2        |            |DIFFM    |IO_L40P_6/VREF_6   |UNUSED   |           |6             |          |         |           |         |         |          |           |                |
|K3        |            |         |GND                |         |           |              |          |         |           |         |         |          |           |                |
|K4        |            |DIFFM    |IO_L39P_6          |UNUSED   |           |6             |          |         |           |         |         |          |           |                |
|K5        |            |DIFFS    |IO_L39N_6          |UNUSED   |           |6             |          |         |           |         |         |          |           |                |
|K6        |            |DIFFM    |IO                 |UNUSED   |           |6             |          |         |           |         |         |          |           |                |
|K7        |            |         |VCCO_6             |         |           |6             |          |         |           |         |2.50     |          |           |                |
|K8        |            |         |GND                |         |           |              |          |         |           |         |         |          |           |                |
|K11       |            |         |GND                |         |           |              |          |         |           |         |         |          |           |                |
|K12       |            |         |VCCO_3             |         |           |3             |          |         |           |         |2.50     |          |           |                |
|K13       |            |DIFFS    |IO_L39N_3          |UNUSED   |           |3             |          |         |           |         |         |          |           |                |
|K14       |            |DIFFM    |IO_L39P_3          |UNUSED   |           |3             |          |         |           |         |         |          |           |                |
|K15       |            |DIFFS    |IO                 |UNUSED   |           |3             |          |         |           |         |         |          |           |                |
|K16       |            |         |GND                |         |           |              |          |         |           |         |         |          |           |                |
|K17       |            |DIFFS    |IO_L40N_3/VREF_3   |UNUSED   |           |3             |          |         |           |         |         |          |           |                |
|K18       |            |DIFFM    |IO_L40P_3          |UNUSED   |           |3             |          |         |           |         |         |          |           |                |
|L1        |            |DIFFM    |IO_L35P_6          |UNUSED   |           |6             |          |         |           |         |         |          |           |                |
|L2        |            |DIFFS    |IO_L35N_6          |UNUSED   |           |6             |          |         |           |         |         |          |           |                |
|L3        |            |DIFFS    |IO_L34N_6/VREF_6   |UNUSED   |           |6             |          |         |           |         |         |          |           |                |
|L4        |            |DIFFM    |IO_L34P_6          |UNUSED   |           |6             |          |         |           |         |         |          |           |                |
|L5        |            |DIFFM    |IO_L27P_6          |UNUSED   |           |6             |          |         |           |         |         |          |           |                |
|L6        |            |DIFFS    |IO_L27N_6          |UNUSED   |           |6             |          |         |           |         |         |          |           |                |
|L7        |            |         |VCCO_6             |         |           |6             |          |         |           |         |2.50     |          |           |                |
|L8        |            |         |GND                |         |           |              |          |         |           |         |         |          |           |                |
|L9        |            |         |GND                |         |           |              |          |         |           |         |         |          |           |                |
|L10       |            |         |GND                |         |           |              |          |         |           |         |         |          |           |                |
|L11       |            |         |GND                |         |           |              |          |         |           |         |         |          |           |                |
|L12       |            |         |VCCO_3             |         |           |3             |          |         |           |         |2.50     |          |           |                |
|L13       |            |DIFFM    |IO_L27P_3          |UNUSED   |           |3             |          |         |           |         |         |          |           |                |
|L14       |            |DIFFS    |IO_L27N_3          |UNUSED   |           |3             |          |         |           |         |         |          |           |                |
|L15       |            |DIFFS    |IO_L34N_3          |UNUSED   |           |3             |          |         |           |         |         |          |           |                |
|L16       |            |DIFFM    |IO_L34P_3/VREF_3   |UNUSED   |           |3             |          |         |           |         |         |          |           |                |
|L17       |            |DIFFM    |IO_L35P_3          |UNUSED   |           |3             |          |         |           |         |         |          |           |                |
|L18       |            |DIFFS    |IO_L35N_3          |UNUSED   |           |3             |          |         |           |         |         |          |           |                |
|M1        |            |DIFFM    |IO_L24P_6          |UNUSED   |           |6             |          |         |           |         |         |          |           |                |
|M2        |            |         |VCCAUX             |         |           |              |          |         |           |         |2.5      |          |           |                |
|M3        |            |DIFFS    |IO_L23N_6          |UNUSED   |           |6             |          |         |           |         |         |          |           |                |
|M4        |            |DIFFM    |IO_L23P_6          |UNUSED   |           |6             |          |         |           |         |         |          |           |                |
|M5        |            |DIFFM    |IO_L22P_6          |UNUSED   |           |6             |          |         |           |         |         |          |           |                |
|M6        |            |         |VCCINT             |         |           |              |          |         |           |         |1.2      |          |           |                |
|M7        |            |         |GND                |         |           |              |          |         |           |         |         |          |           |                |
|M8        |            |         |VCCO_5             |         |           |5             |          |         |           |         |2.50     |          |           |                |
|M9        |            |         |VCCO_5             |         |           |5             |          |         |           |         |2.50     |          |           |                |
|M10       |            |         |VCCO_4             |         |           |4             |          |         |           |         |2.50     |          |           |                |
|M11       |            |         |VCCO_4             |         |           |4             |          |         |           |         |2.50     |          |           |                |
|M12       |            |         |GND                |         |           |              |          |         |           |         |         |          |           |                |
|M13       |            |         |VCCINT             |         |           |              |          |         |           |         |1.2      |          |           |                |
|M14       |            |DIFFS    |IO_L22N_3          |UNUSED   |           |3             |          |         |           |         |         |          |           |                |
|M15       |DAC_REG<0>  |IOB      |IO_L23N_3          |OUTPUT   |LVCMOS25*  |3             |12        |SLOW     |NONE**     |         |         |LOCATED   |NO         |NONE            |
|M16       |            |DIFFM    |IO_L23P_3/VREF_3   |UNUSED   |           |3             |          |         |           |         |         |          |           |                |
|M17       |            |         |VCCAUX             |         |           |              |          |         |           |         |2.5      |          |           |                |
|M18       |            |DIFFS    |IO_L24N_3          |UNUSED   |           |3             |          |         |           |         |         |          |           |                |
|N1        |            |         |GND                |         |           |              |          |         |           |         |         |          |           |                |
|N2        |            |DIFFS    |IO_L24N_6/VREF_6   |UNUSED   |           |6             |          |         |           |         |         |          |           |                |
|N3        |            |         |VCCO_6             |         |           |6             |          |         |           |         |2.50     |          |           |                |
|N4        |            |DIFFS    |IO_L21N_6          |UNUSED   |           |6             |          |         |           |         |         |          |           |                |
|N5        |            |DIFFS    |IO_L22N_6          |UNUSED   |           |6             |          |         |           |         |         |          |           |                |
|N6        |            |         |VCCINT             |         |           |              |          |         |           |         |1.2      |          |           |                |
|N7        |            |         |VCCINT             |         |           |              |          |         |           |         |1.2      |          |           |                |
|N8        |            |IOB      |IO                 |UNUSED   |           |5             |          |         |           |         |         |          |           |                |
|N9        |            |DIFFS    |IO_L32N_5/GCLK3    |UNUSED   |           |5             |          |         |           |         |         |          |           |                |
|N10       |hi_in<0>    |IOB      |IO_L32N_4/GCLK1    |INPUT    |LVCMOS25*  |4             |          |         |           |NONE     |         |LOCATED   |NO         |NONE            |
|N11       |hi_inout<5> |IOB      |IO_L30N_4/D2       |BIDIR    |LVCMOS25*  |4             |12        |SLOW     |NONE**     |NONE     |         |LOCATED   |NO         |NONE            |
|N12       |            |         |VCCINT             |         |           |              |          |         |           |         |1.2      |          |           |                |
|N13       |            |         |VCCINT             |         |           |              |          |         |           |         |1.2      |          |           |                |
|N14       |            |DIFFM    |IO_L22P_3          |UNUSED   |           |3             |          |         |           |         |         |          |           |                |
|N15       |DAC_DB<1>   |IOB      |IO_L21P_3          |OUTPUT   |LVCMOS25*  |3             |12        |SLOW     |NONE**     |         |         |LOCATED   |NO         |NONE            |
|N16       |            |         |VCCO_3             |         |           |3             |          |         |           |         |2.50     |          |           |                |
|N17       |DAC_REG<1>  |IOB      |IO_L24P_3          |OUTPUT   |LVCMOS25*  |3             |12        |SLOW     |NONE**     |         |         |LOCATED   |NO         |NONE            |
|N18       |            |         |GND                |         |           |              |          |         |           |         |         |          |           |                |
|P1        |DAC_DB<13>  |IOB      |IO_L20P_6          |OUTPUT   |LVCMOS25*  |6             |12        |SLOW     |NONE**     |         |         |LOCATED   |NO         |NONE            |
|P2        |DAC_DB<11>  |IOB      |IO_L20N_6          |OUTPUT   |LVCMOS25*  |6             |12        |SLOW     |NONE**     |         |         |LOCATED   |NO         |NONE            |
|P3        |DAC_DB<12>  |IOB      |IO_L19P_6          |OUTPUT   |LVCMOS25*  |6             |12        |SLOW     |NONE**     |         |         |LOCATED   |NO         |NONE            |
|P4        |DAC_DB<10>  |IOB      |IO_L21P_6          |OUTPUT   |LVCMOS25*  |6             |12        |SLOW     |NONE**     |         |         |LOCATED   |NO         |NONE            |
|P5        |            |         |M0                 |         |           |              |          |         |           |         |         |          |           |                |
|P6        |            |DIFFS    |IO_L27N_5/VREF_5   |UNUSED   |           |5             |          |         |           |         |         |          |           |                |
|P7        |            |DIFFM    |IO_L27P_5          |UNUSED   |           |5             |          |         |           |         |         |          |           |                |
|P8        |            |IOB      |IO                 |UNUSED   |           |5             |          |         |           |         |         |          |           |                |
|P9        |            |DIFFM    |IO_L32P_5/GCLK2    |UNUSED   |           |5             |          |         |           |         |         |          |           |                |
|P10       |            |DIFFM    |IO_L32P_4/GCLK0    |UNUSED   |           |4             |          |         |           |         |         |          |           |                |
|P11       |hi_inout<4> |IOB      |IO_L30P_4/D3       |BIDIR    |LVCMOS25*  |4             |12        |SLOW     |NONE**     |NONE     |         |LOCATED   |NO         |NONE            |
|P12       |            |IOB      |IO                 |UNUSED   |           |4             |          |         |           |         |         |          |           |                |
|P13       |            |DIFFM    |IO_L25P_4          |UNUSED   |           |4             |          |         |           |         |         |          |           |                |
|P14       |            |DIFFS    |IO_L06N_4/VREF_4   |UNUSED   |           |4             |          |         |           |         |         |          |           |                |
|P15       |DAC_DB<5>   |IOB      |IO_L21N_3          |OUTPUT   |LVCMOS25*  |3             |12        |SLOW     |NONE**     |         |         |LOCATED   |NO         |NONE            |
|P16       |DAC_DB<3>   |IOB      |IO_L17N_3          |OUTPUT   |LVCMOS25*  |3             |12        |SLOW     |NONE**     |         |         |LOCATED   |NO         |NONE            |
|P17       |DAC_DB<2>   |IOB      |IO_L20P_3          |OUTPUT   |LVCMOS25*  |3             |12        |SLOW     |NONE**     |         |         |LOCATED   |NO         |NONE            |
|P18       |DAC_DB<0>   |IOB      |IO_L20N_3          |OUTPUT   |LVCMOS25*  |3             |12        |SLOW     |NONE**     |         |         |LOCATED   |NO         |NONE            |
|R1        |DAC_DB<9>   |IOB      |IO_L17P_6/VREF_6   |OUTPUT   |LVCMOS25*  |6             |12        |SLOW     |NONE**     |         |         |LOCATED   |NO         |NONE            |
|R2        |DAC_A_B     |IOB      |IO_L17N_6          |OUTPUT   |LVCMOS25*  |6             |12        |SLOW     |NONE**     |         |         |LOCATED   |NO         |NONE            |
|R3        |DAC_DB<8>   |IOB      |IO_L19N_6          |OUTPUT   |LVCMOS25*  |6             |12        |SLOW     |NONE**     |         |         |LOCATED   |NO         |NONE            |
|R4        |            |         |M2                 |         |           |              |          |         |           |         |         |          |           |                |
|R5        |hi_inout<15>|IOB      |IO_L15P_5          |TRISTATE |LVCMOS25*  |5             |12        |SLOW     |NONE**     |         |         |LOCATED   |NO         |NONE            |
|R6        |            |DIFFS    |IO_L15N_5          |UNUSED   |           |5             |          |         |           |         |         |          |           |                |
|R7        |hi_inout<1> |IOB      |IO_L28N_5/D6       |BIDIR    |LVCMOS25*  |5             |12        |SLOW     |NONE**     |NONE     |         |LOCATED   |NO         |NONE            |
|R8        |hi_in<4>    |IOB      |IO_L30N_5          |INPUT    |LVCMOS25*  |5             |          |         |           |NONE     |         |LOCATED   |NO         |NONE            |
|R9        |hi_muxsel   |IOB      |IO/VREF_5          |OUTPUT   |LVCMOS25*  |5             |12        |SLOW     |NONE**     |         |         |LOCATED   |NO         |NONE            |
|R10       |            |IOB      |IO/VREF_4          |UNUSED   |           |4             |          |         |           |         |         |          |           |                |
|R11       |            |DIFFS    |IO_L29N_4          |UNUSED   |           |4             |          |         |           |         |         |          |           |                |
|R12       |hi_inout<6> |IOB      |IO_L27P_4/D1       |BIDIR    |LVCMOS25*  |4             |12        |SLOW     |NONE**     |NONE     |         |LOCATED   |NO         |NONE            |
|R13       |i2c_sda     |IOB      |IO_L25N_4          |TRISTATE |LVCMOS25*  |4             |12        |SLOW     |PULLUP     |         |         |LOCATED   |NO         |NONE            |
|R14       |            |DIFFM    |IO_L06P_4          |UNUSED   |           |4             |          |         |           |         |         |          |           |                |
|R15       |            |         |DONE               |         |           |              |          |         |           |         |         |          |           |                |
|R16       |DAC_DB<7>   |IOB      |IO_L17P_3/VREF_3   |OUTPUT   |LVCMOS25*  |3             |12        |SLOW     |NONE**     |         |         |LOCATED   |NO         |NONE            |
|R17       |DAC_DB<6>   |IOB      |IO_L19N_3          |OUTPUT   |LVCMOS25*  |3             |12        |SLOW     |NONE**     |         |         |LOCATED   |NO         |NONE            |
|R18       |DAC_DB<4>   |IOB      |IO_L19P_3          |OUTPUT   |LVCMOS25*  |3             |12        |SLOW     |NONE**     |         |         |LOCATED   |NO         |NONE            |
|T1        |DAC_ADDR<4> |IOB      |IO_L16P_6          |OUTPUT   |LVCMOS25*  |6             |12        |SLOW     |NONE**     |         |         |LOCATED   |NO         |NONE            |
|T2        |DAC_ADDR<5> |IOB      |IO_L01P_6/VRN_6    |OUTPUT   |LVCMOS25*  |6             |12        |SLOW     |NONE**     |         |         |LOCATED   |NO         |NONE            |
|T3        |DAC_ADDR<3> |IOB      |IO_L01N_6/VRP_6    |OUTPUT   |LVCMOS25*  |6             |12        |SLOW     |NONE**     |         |         |LOCATED   |NO         |NONE            |
|T4        |hi_inout<13>|IOB      |IO_L06P_5          |BIDIR    |LVCMOS25*  |5             |12        |SLOW     |NONE**     |NONE     |         |LOCATED   |NO         |NONE            |
|T5        |hi_inout<14>|IOB      |IO_L06N_5          |TRISTATE |LVCMOS25*  |5             |12        |SLOW     |NONE**     |         |         |LOCATED   |NO         |NONE            |
|T6        |            |         |VCCO_5             |         |           |5             |          |         |           |         |2.50     |          |           |                |
|T7        |hi_inout<0> |IOB      |IO_L28P_5/D7       |BIDIR    |LVCMOS25*  |5             |12        |SLOW     |NONE**     |NONE     |         |LOCATED   |NO         |NONE            |
|T8        |hi_in<5>    |IOB      |IO_L30P_5          |INPUT    |LVCMOS25*  |5             |          |         |           |NONE     |         |LOCATED   |NO         |NONE            |
|T9        |            |         |GND                |         |           |              |          |         |           |         |         |          |           |                |
|T10       |            |         |GND                |         |           |              |          |         |           |         |         |          |           |                |
|T11       |            |DIFFM    |IO_L29P_4          |UNUSED   |           |4             |          |         |           |         |         |          |           |                |
|T12       |hi_inout<7> |IOB      |IO_L27N_4/DIN/D0   |BIDIR    |LVCMOS25*  |4             |12        |SLOW     |NONE**     |NONE     |         |LOCATED   |NO         |NONE            |
|T13       |            |         |VCCO_4             |         |           |4             |          |         |           |         |2.50     |          |           |                |
|T14       |led<2>      |IOB      |IO_L10N_4          |OUTPUT   |LVCMOS25*  |4             |12        |SLOW     |NONE**     |         |         |LOCATED   |NO         |NONE            |
|T15       |            |         |CCLK               |         |           |              |          |         |           |         |         |          |           |                |
|T16       |DAC_ADDR<0> |IOB      |IO_L01P_3/VRN_3    |OUTPUT   |LVCMOS25*  |3             |12        |SLOW     |NONE**     |         |         |LOCATED   |NO         |NONE            |
|T17       |DAC_LDAC    |IOB      |IO_L01N_3/VRP_3    |OUTPUT   |LVCMOS25*  |3             |12        |SLOW     |NONE**     |         |         |LOCATED   |NO         |NONE            |
|T18       |DAC_WR      |IOB      |IO_L16N_3          |OUTPUT   |LVCMOS25*  |3             |12        |SLOW     |NONE**     |         |         |LOCATED   |NO         |NONE            |
|U1        |DAC_ADDR<2> |IOB      |IO_L16N_6          |OUTPUT   |LVCMOS25*  |6             |12        |SLOW     |NONE**     |         |         |LOCATED   |NO         |NONE            |
|U2        |            |         |GND                |         |           |              |          |         |           |         |         |          |           |                |
|U3        |            |         |M1                 |         |           |              |          |         |           |         |         |          |           |                |
|U4        |hi_inout<12>|IOB      |IO_L10P_5/VRN_5    |BIDIR    |LVCMOS25*  |5             |12        |SLOW     |NONE**     |NONE     |         |LOCATED   |NO         |NONE            |
|U5        |hi_inout<10>|IOB      |IO_L16P_5          |BIDIR    |LVCMOS25*  |5             |12        |SLOW     |NONE**     |NONE     |         |LOCATED   |NO         |NONE            |
|U6        |hi_inout<8> |IOB      |IO                 |BIDIR    |LVCMOS25*  |5             |12        |SLOW     |NONE**     |NONE     |         |LOCATED   |NO         |NONE            |
|U7        |            |         |VCCAUX             |         |           |              |          |         |           |         |2.5      |          |           |                |
|U8        |            |         |VCCO_5             |         |           |5             |          |         |           |         |2.50     |          |           |                |
|U9        |hi_inout<3> |IOB      |IO_L31N_5/D4       |BIDIR    |LVCMOS25*  |5             |12        |SLOW     |NONE**     |NONE     |         |LOCATED   |NO         |NONE            |
|U10       |            |DIFFS    |IO_L31N_4/INIT_B   |UNUSED   |           |4             |          |         |           |         |         |          |           |                |
|U11       |            |         |VCCO_4             |         |           |4             |          |         |           |         |2.50     |          |           |                |
|U12       |            |         |VCCAUX             |         |           |              |          |         |           |         |2.5      |          |           |                |
|U13       |i2c_scl     |IOB      |IO/VREF_4          |TRISTATE |LVCMOS25*  |4             |12        |SLOW     |PULLUP     |         |         |LOCATED   |NO         |NONE            |
|U14       |led<1>      |IOB      |IO_L10P_4          |OUTPUT   |LVCMOS25*  |4             |12        |SLOW     |NONE**     |         |         |LOCATED   |NO         |NONE            |
|U15       |led<4>      |IOB      |IO_L09N_4          |OUTPUT   |LVCMOS25*  |4             |12        |SLOW     |NONE**     |         |         |LOCATED   |NO         |NONE            |
|U16       |led<7>      |IOB      |IO_L01N_4/VRP_4    |OUTPUT   |LVCMOS25*  |4             |12        |SLOW     |NONE**     |         |         |LOCATED   |NO         |NONE            |
|U17       |            |         |GND                |         |           |              |          |         |           |         |         |          |           |                |
|U18       |DAC_ADDR<1> |IOB      |IO_L16P_3          |OUTPUT   |LVCMOS25*  |3             |12        |SLOW     |NONE**     |         |         |LOCATED   |NO         |NONE            |
|V1        |            |         |GND                |         |           |              |          |         |           |         |         |          |           |                |
|V2        |hi_in<1>    |IOB      |IO_L01P_5/CS_B     |INPUT    |LVCMOS25*  |5             |          |         |           |NONE     |         |LOCATED   |NO         |NONE            |
|V3        |hi_in<2>    |IOB      |IO_L01N_5/RDWR_B   |INPUT    |LVCMOS25*  |5             |          |         |           |NONE     |         |LOCATED   |NO         |NONE            |
|V4        |hi_inout<11>|IOB      |IO_L10N_5/VRP_5    |BIDIR    |LVCMOS25*  |5             |12        |SLOW     |NONE**     |NONE     |         |LOCATED   |NO         |NONE            |
|V5        |hi_inout<9> |IOB      |IO_L16N_5          |BIDIR    |LVCMOS25*  |5             |12        |SLOW     |NONE**     |NONE     |         |LOCATED   |NO         |NONE            |
|V6        |            |         |GND                |         |           |              |          |         |           |         |         |          |           |                |
|V7        |hi_in<7>    |IOB      |IO_L29P_5/VREF_5   |INPUT    |LVCMOS25*  |5             |          |         |           |NONE     |         |LOCATED   |NO         |NONE            |
|V8        |hi_in<6>    |IOB      |IO_L29N_5          |INPUT    |LVCMOS25*  |5             |          |         |           |NONE     |         |LOCATED   |NO         |NONE            |
|V9        |hi_inout<2> |IOB      |IO_L31P_5/D5       |BIDIR    |LVCMOS25*  |5             |12        |SLOW     |NONE**     |NONE     |         |LOCATED   |NO         |NONE            |
|V10       |hi_out<0>   |IOB      |IO_L31P_4/DOUT/BUSY|OUTPUT   |LVCMOS25*  |4             |12        |SLOW     |NONE**     |         |         |LOCATED   |NO         |NONE            |
|V11       |hi_out<1>   |IOB      |IO_L28P_4          |OUTPUT   |LVCMOS25*  |4             |12        |SLOW     |NONE**     |         |         |LOCATED   |NO         |NONE            |
|V12       |hi_in<3>    |IOB      |IO_L28N_4          |INPUT    |LVCMOS25*  |4             |          |         |           |NONE     |         |LOCATED   |NO         |NONE            |
|V13       |            |         |GND                |         |           |              |          |         |           |         |         |          |           |                |
|V14       |led<0>      |IOB      |IO                 |OUTPUT   |LVCMOS25*  |4             |12        |SLOW     |NONE**     |         |         |LOCATED   |NO         |NONE            |
|V15       |led<3>      |IOB      |IO_L09P_4          |OUTPUT   |LVCMOS25*  |4             |12        |SLOW     |NONE**     |         |         |LOCATED   |NO         |NONE            |
|V16       |led<5>      |IOB      |IO_L01P_4/VRN_4    |OUTPUT   |LVCMOS25*  |4             |12        |SLOW     |NONE**     |         |         |LOCATED   |NO         |NONE            |
|V17       |led<6>      |IOB      |IO/VREF_4          |OUTPUT   |LVCMOS25*  |4             |12        |SLOW     |NONE**     |         |         |LOCATED   |NO         |NONE            |
|V18       |            |         |GND                |         |           |              |          |         |           |         |         |          |           |                |
+---------------------------------------------------------------------------------------------------------------------------------------------------------------------------------------+

* Default value.
** This default Pullup/Pulldown value can be overridden in Bitgen. 
****** Special VCCO requirements may apply. Please consult the device 
       family datasheet for specific guideline on VCCO requirements. 


