MO okPipeIn NULL okLibrary.v vlg17/ok_pipe_in.bin 1535393249
MO okCore NULL okLibrary.v vlg63/ok_core.bin 1535393249
MO top_auto NULL top_auto.v vlg67/top__auto.bin 1535393249
MO DAC5380_Interface NULL DAC5380_Interface.v vlg74/_d_a_c5380___interface.bin 1535393249
MO okBTPipeIn NULL okLibrary.v vlg35/ok_b_t_pipe_in.bin 1535393249
MO okHost NULL okLibrary.v vlg68/ok_host.bin 1535393249
MO okPipeOut NULL okLibrary.v vlg20/ok_pipe_out.bin 1535393249
MO okWireIn NULL okLibrary.v vlg04/ok_wire_in.bin 1535393249
MO okWireOR NULL okLibrary.v vlg06/ok_wire_o_r.bin 1535393249
MO okHost_XEM5010 NULL okLibrary.v vlg2F/ok_host___x_e_m5010.bin 1535393249
MO okWireOut NULL okLibrary.v vlg41/ok_wire_out.bin 1535393249
MO okTriggerIn NULL okLibrary.v vlg55/ok_trigger_in.bin 1535393249
MO okTriggerOut NULL okLibrary.v vlg56/ok_trigger_out.bin 1535393249
MO okBTPipeOut NULL okLibrary.v vlg36/ok_b_t_pipe_out.bin 1535393249
